<?xml version="1.0" encoding="utf-8"?>
<!-- Generator: Adobe Illustrator 16.0.0, SVG Export Plug-In . SVG Version: 6.00 Build 0)  -->
<!DOCTYPE svg PUBLIC "-//W3C//DTD SVG 1.1//EN" "http://www.w3.org/Graphics/SVG/1.1/DTD/svg11.dtd">
<svg version="1.1" xmlns="http://www.w3.org/2000/svg" xmlns:xlink="http://www.w3.org/1999/xlink" x="0px" y="0px" width="616px"
	 height="247px" viewBox="0 0 616 247" enable-background="new 0 0 616 247" xml:space="preserve">
<g id="fond_dark" display="none">
	<rect x="-170" y="-158" display="inline" fill="#1A1920" width="1740" height="560"/>
</g>
<g id="Calque_7" display="none">
</g>
<g id="Q_1x1">
</g>
<g id="Q">
</g>
<g id="Texte">
	<g>
		<polygon fill="#8EFD77" points="198.08,226 175.25,186.406 198,173.122 198,67.88 107,15.259 61.28,41.697 74.929,65.655 
			107.5,46.739 171,83.617 171,157.372 138.19,176.427 137.364,176.889 137.717,177.52 137.714,177.521 137.824,177.713 
			138.112,178.227 138.119,178.352 165.614,226 		"/>
		<path fill="#5CABFF" d="M146.01,202.531l-2.75-4.78l-14.79,8.55l-5.82,3.45l-0.09,0.05l-4.75,2.971L117.65,213h-0.01l-5.81,3.131
			l-0.09-0.115l-4.91,2.808l-5.51-3.195l-4.41-2.549l-5.51-3.184l-5.51-3.183L44,182.522l-6-3.471l-5-2.88l-6-3.471l-5-2.88v-98.75
			l5-2.88l6-3.471l5-2.88l6-3.47l14.37-8.29l-2.89-5.03L38,55.161l-5,2.89l-6,3.47l-5,2.891l-6,3.47v105.24l6,3.47l5,2.891l6,3.47
			l5,2.9l6,3.479l9.98,5.771l3.42,1.979l19.19,11.11l3.33,1.97l0.06,0.03l5.4,3.18l0.11,0.061l5.28,3.309l0.22,0.26H91l4.28,2.23
			l0.11-0.005l5.51,3.018l5.5,3.175l0.6,0.331l0.02-0.014l5.91-3.422l4.91-2.841l10.81-6.251l5.9-3.409l11.74-6.791L146.01,202.531z
			 M38,68.531l-5,2.88l-6,3.47v92.141l6,3.47l5,2.89l6,3.46l46.81,27.03l5.51,3.18l5.51,3.181l4.41,2.54l0.04,0.029l5.86-3.329
			l0.1,0.079l4.81-2.551h0.01l0.18-0.24l5.72-3.474l0.09-0.083l17.47-10.205l-2.2-3.829l-19.77,11.406l-5.9,3.408l-4.92,2.839
			l-5.5-3.181l-5.52-3.181L44,170.021l-6-3.46l-5-2.891v-86.9l5-2.89l6-3.46l19.57-11.3l-2.31-4.021L44,65.061L38,68.531z
			 M132.83,179.611l-0.03-0.05l-18.98,11.02l-0.65,0.38l-5.62,3.261l-0.05,0.029l-0.02-0.01l-17.12-9.94l-0.3-0.18L44,157.371
			v-73.75l25.23-14.65l-2.78-4.83L44,77.101l-6,3.471v80.31l6,3.46l57.63,33.28l5.51,3.18l5.91-3.409l22.53-13L132.83,179.611z"/>
		<g>
			<rect x="232" y="68.312" fill="none" width="368" height="106.376"/>
			<path fill="#8EFD77" d="M270.624,171.799l-38.116-102.26h25.072l24.563,71.768l24.394-71.768h24.395l-38.116,102.26H270.624z"/>
			<path fill="#8EFD77" d="M465.604,136.686c-4.743,23.256-22.361,38.656-48.449,38.656c-29.477,0-52.007-18.327-52.007-53.441
				c0-34.651,20.159-55.75,52.346-55.75c28.121,0,45.908,16.325,48.11,36.962h-23.547c-3.219-11.551-13.214-18.481-24.395-18.481
				c-19.481,0-28.629,13.707-28.629,36.038c0,22.64,9.147,36.038,27.443,36.038c13.891,0,22.361-7.238,25.58-20.021H465.604z"/>
			<path fill="#8EFD77" d="M537.598,171.799V87.403h-33.881V69.539h91.478v17.865h-34.05v84.396H537.598z"/>
		</g>
		<g>
			<rect x="232" y="181.741" fill="none" width="360.576" height="50"/>
			<path fill="#5CABFF" d="M336.486,206.271c0-10.943,10.207-20.129,22.178-20.129c5.984,0,11.529,2.269,15.563,5.954l-3.34,3.062
				c-3.15-3.005-7.498-4.933-12.223-4.933c-9.324,0-17.199,7.371-17.199,16.046c0,8.732,7.875,16.104,17.199,16.104
				c4.725,0,9.072-1.928,12.223-4.933l3.34,3.062c-4.033,3.629-9.578,5.953-15.563,5.953
				C346.693,226.457,336.486,217.215,336.486,206.271z"/>
			<path fill="#5CABFF" d="M380.65,211.092c0-8.336,7.748-15.31,16.885-15.31c9.135,0,16.822,6.974,16.822,15.31
				c0,8.335-7.688,15.365-16.822,15.365C388.398,226.457,380.65,219.427,380.65,211.092z M409.379,211.092
				c0-6.237-5.418-11.511-11.844-11.511c-6.49,0-11.908,5.273-11.908,11.511c0,6.293,5.418,11.566,11.908,11.566
				C403.961,222.658,409.379,217.385,409.379,211.092z"/>
			<path fill="#5CABFF" d="M451.463,207.123v18.654h-4.725v-18.088c0-4.763-3.34-8.108-8.127-8.108
				c-5.482,0-10.082,3.459-10.082,7.542v18.654h-4.725v-29.314h4.725v4.706c1.891-3.118,6.111-5.387,10.711-5.387
				C446.424,195.782,451.463,200.488,451.463,207.123z"/>
			<path fill="#5CABFF" d="M460.658,222.092l2.457-3.119c3.719,2.438,7.436,3.686,11.027,3.686c4.283,0,7.182-1.814,7.182-4.592
				c0-3.176-3.781-4.196-8.191-5.33c-7.875-2.041-10.898-4.14-10.898-8.336c0-5.33,4.914-8.618,11.402-8.618
				c4.033,0,8.191,1.247,11.656,3.288l-2.268,3.289c-3.277-1.871-6.49-2.778-9.389-2.778c-3.652,0-6.678,1.474-6.678,4.31
				c0,2.551,2.395,3.346,8.443,5.104c5.229,1.474,10.646,3.062,10.646,8.618c0,5.387-5.166,8.845-11.906,8.845
				C469.605,226.457,464.564,224.927,460.658,222.092z"/>
			<path fill="#5CABFF" d="M520.383,219.143l2.898,2.779c-2.834,2.778-8.568,4.535-13.104,4.535
				c-8.695,0-16.508-6.406-16.508-15.422c0-8.732,7.309-15.253,16.066-15.253c9.828,0,15.436,6.69,15.436,16.954h-26.65
				c0.693,5.727,5.166,9.922,11.592,9.922C513.957,222.658,518.367,221.128,520.383,219.143z M498.584,208.938h21.926
				c-0.631-5.273-4.096-9.356-10.584-9.356C504.129,199.581,499.467,203.267,498.584,208.938z"/>
			<path fill="#5CABFF" d="M533.674,188.297c0-1.474,1.387-2.777,3.15-2.777c1.701,0,3.088,1.304,3.088,2.777
				c0,1.531-1.387,2.836-3.088,2.836C535.061,191.133,533.674,189.828,533.674,188.297z M534.432,196.463h4.725v29.314h-4.725
				V196.463z"/>
			<path fill="#5CABFF" d="M550.244,186.143h4.725v39.635h-4.725V186.143z"/>
			<path fill="#5CABFF" d="M564.166,222.092l2.457-3.119c3.719,2.438,7.436,3.686,11.027,3.686c4.283,0,7.182-1.814,7.182-4.592
				c0-3.176-3.781-4.196-8.191-5.33c-7.875-2.041-10.898-4.14-10.898-8.336c0-5.33,4.914-8.618,11.402-8.618
				c4.033,0,8.191,1.247,11.656,3.288l-2.268,3.289c-3.277-1.871-6.49-2.778-9.389-2.778c-3.652,0-6.678,1.474-6.678,4.31
				c0,2.551,2.395,3.346,8.443,5.104c5.229,1.474,10.646,3.062,10.646,8.618c0,5.387-5.166,8.845-11.906,8.845
				C573.113,226.457,568.072,224.927,564.166,222.092z"/>
		</g>
	</g>
</g>
</svg>
